[
  {
    "model": "block.accesstoken",
    "pk": "5075284997574d7f84dd8334a7c1d281",
    "fields": {
      "user_id": "tester_id_1",
      "type": 1,
      "subject_id": "tester_subject"
    }
  },
  {
    "model": "block.accesstoken",
    "pk": "5075284997574d7f84dd8334a7c1d282",
    "fields": {
      "user_id": "tester_id_2",
      "type": 1,
      "subject_id": "tester_subject"
    }
  },
  {
    "model": "block.accesstoken",
    "pk": "5075284997574d7f84dd8334a7c1d283",
    "fields": {
      "user_id": "tester_id_3",
      "type": 1,
      "subject_id": "tester_subject"
    }
  },
  {
    "model": "block.accesstoken",
    "pk": "5075284997574d7f84dd8334a7c1d284",
    "fields": {
      "user_id": "tester_id_4",
      "type": 1,
      "subject_id": "tester_subject"
    }
  },
  {
    "model": "block.swiftproject",
    "pk": "demo",
    "fields": {
      "project_id": "b0934b118ad94e1baca04ee3b787967e",
      "project_name": "demo",
      "status": 1
    }
  },
  {
    "model": "block.swiftdomain",
    "pk": "default",
    "fields": {
      "domain_id": "default",
      "name": "default",
      "status": 11
    }
  },
  {
    "model": "block.swiftaccount",
    "pk": "test_account_1",
    "fields": {
      "user_id": "tester_id_1",
      "username": "5aa82958389c485e8baf72bb88f80362",
      "password": "CwfzD5b3owDu8Rp97yN0nBowsdIcIB55",
      "description": "local-tester",
      "project_id": "demo",
      "project_name": "demo",
      "access_key": "12083cb22f364fc6a0662cb8ca17dfab",
      "secret_key": "740cb16f266a4c4aaefe5f736162a14b",
      "status": 1
    }
  },
  {
    "model": "block.swiftaccount",
    "pk": "test_account_2",
    "fields": {
      "user_id": "tester_id_2",
      "username": "5aa82958389c485e8baf72bb88f80362",
      "password": "CwfzD5b3owDu8Rp97yN0nBowsdIcIB55",
      "description": "local-tester",
      "project_id": "demo",
      "project_name": "demo",
      "access_key": "12083cb22f364fc6a0662cb8ca17dfab",
      "secret_key": "740cb16f266a4c4aaefe5f736162a14b",
      "status": 1
    }
  },
  {
    "model": "block.swiftaccount",
    "pk": "test_account_3",
    "fields": {
      "user_id": "tester_id_3",
      "username": "5aa82958389c485e8baf72bb88f80362",
      "password": "CwfzD5b3owDu8Rp97yN0nBowsdIcIB55",
      "description": "local-tester",
      "project_id": "demo",
      "project_name": "demo",
      "access_key": "12083cb22f364fc6a0662cb8ca17dfab",
      "secret_key": "740cb16f266a4c4aaefe5f736162a14b",
      "status": 1
    }
  },
  {
    "model": "block.swiftaccount",
    "pk": "test_account_4",
    "fields": {
      "user_id": "tester_id_4",
      "username": "5aa82958389c485e8baf72bb88f80362",
      "password": "CwfzD5b3owDu8Rp97yN0nBowsdIcIB55",
      "description": "local-tester",
      "project_id": "demo",
      "project_name": "demo",
      "access_key": "12083cb22f364fc6a0662cb8ca17dfab",
      "secret_key": "740cb16f266a4c4aaefe5f736162a14b",
      "status": 1
    }
  },
  {
    "model": "block.swiftcontainer",
    "pk": "upbox_51074842f29cc3dceb2d77044c_test_1",
    "fields": {
        "account": "test_account_1",
        "name": "local-tester_1",
        "type": 2,
        "max_quota": 2829455,
        "quota_count": 2829455,
        "status": 1
      }
  },
  {
    "model": "block.swiftcontainer",
    "pk": "upbox_51074842f29cc3dceb2d77044c_test_2",
    "fields": {
        "account": "test_account_2",
        "name": "local-tester_2",
        "type": 2,
        "max_quota": 2147483648,
        "quota_count": 0,
        "status": 1
      }
  },
  {
    "model": "block.swiftcontainer",
    "pk": "upbox_51074842f29cc3dceb2d77044c_test_3",
    "fields": {
        "account": "test_account_3",
        "name": "local-tester_3",
        "type": 2,
        "max_quota": 2829455,
        "quota_count": 2829455,
        "status": 1
      }
  },
  {
    "model": "block.swiftcontainer",
    "pk": "upbox_51074842f29cc3dceb2d77044c_test_4",
    "fields": {
        "account": "test_account_4",
        "name": "local-tester_4",
        "type": 2,
        "max_quota": 2147483648,
        "quota_count": 0,
        "status": 1
      }
  },
  {
    "model": "block.swiftcontainer",
    "pk": "upbox_51074842f29cc3dceb2d77044c",
    "fields": {
        "account": "test_account_3",
        "name": "local-tester_5",
        "type": 2,
        "max_quota": 2147483648,
        "quota_count": 0,
        "status": 1
      }
  },
  {
    "model": "block.SyncSession",
    "pk": "1",
    "fields": {
      "token":"ya29.GltMBInPKOyF7qb9jZIyZWcwqiQAMafCMk1Ae4AROOdUVH29IpKMIb6pm7QN5yCjyfgijQ7NL1k7pIGsQh-OvkiZB_hQNDPWMJJqnwXjYtmEcJuqnFdjJXSVPrGe",
      "refresh_token":"1\/s5QUNrd9Uf-bJh3i_i8ejTVi34M5y8G90ugOAUjY9-o",
      "expires_in":1494824857,
      "total_size":2829455,
      "sync_type":2,
      "status":0,
      "container_id":"upbox_51074842f29cc3dceb2d77044c_test_1",
      "email_sync":"tamtt@hip.vn"
    }
  },
  {
    "model": "block.SyncSession",
    "pk": "2",
    "fields": {
      "token":"ya29.GltMBInPKOyF7qb9jZIyZWcwqiQAMafCMk1Ae4AROOdUVH29IpKMIb6pm7QN5yCjyfgijQ7NL1k7pIGsQh-OvkiZB_hQNDPWMJJqnwXjYtmEcJuqnFdjJXSVPrGe",
      "refresh_token":"1\/s5QUNrd9Uf-bJh3i_i8ejTVi34M5y8G90ugOAUjY9-o",
      "expires_in":1494824857,
      "sync_type":2,
      "status":0,
      "container_id":"upbox_51074842f29cc3dceb2d77044c_test_2",
      "email_sync":"tamtt@hip.vn"
    }
  },
  {
    "model": "block.SyncSession",
    "pk": "3",
    "fields": {
      "token":"ya29.GltMBInPKOyF7qb9jZIyZWcwqiQAMafCMk1Ae4AROOdUVH29IpKMIb6pm7QN5yCjyfgijQ7NL1k7pIGsQh-OvkiZB_hQNDPWMJJqnwXjYtmEcJuqnFdjJXSVPrGe",
      "refresh_token":"1\/s5QUNrd9Uf-bJh3i_i8ejTVi34M5y8G90ugOAUjY9-o",
      "expires_in":1494824857,
      "total_size":2829455,
      "sync_type":2,
      "status":1,
      "container_id":"upbox_51074842f29cc3dceb2d77044c_test_3",
      "sync_value":"{\"total_size\": 2829455, \"total_files\": 13, \"current_file_path\": \"\", \"sync_success_files\": 0, \"sync_success_size\": 0}",
      "email_sync":"tamtt@hip.vn"
    }
  }
]