[
  {
    "model": "block.accesstoken",
    "pk": "5075284997574d7f84dd8334a7c1d284",
    "fields": {
      "user_id": "tester_id",
      "type": 1,
      "subject_id": "tester_subject"
    }
  },
  {
    "model": "block.swiftproject",
    "pk": "demo",
    "fields": {
      "project_id": "b0934b118ad94e1baca04ee3b787967e",
      "project_name": "demo",
      "status": 1
    }
  },
  {
    "model": "block.swiftdomain",
    "pk": "default",
    "fields": {
      "domain_id": "default",
      "name": "default",
      "status": 11
    }
  },
  {
    "model": "block.swiftaccount",
    "pk": "test_account_1",
    "fields": {
      "user_id": "tester_id",
      "username": "block_tester",
      "password": "block_tester",
      "description": "local-tester",
      "project_id": "demo",
      "project_name": "demo",
      "status": 1
    }
  },
  {
    "model": "block.swiftcontainer",
    "pk": "test_account_1_container",
    "fields": {
      "account": "test_account_1",
      "name": "local-tester",
      "type": 0,
      "max_quota": 16106127360,
      "quota_count": 0,
      "status": 1
    }
  },
  {
    "model": "block.FileSystem",
    "pk": "1",
    "fields": {
      "file_name": "testfolder",
      "container": "test_account_1_container",
      "type": 2,
      "kind": "folder",
      "extension": "",
      "icon": "folder_1",
      "fq_path_reference": "3bb15cc8b36f0038aac255d69946d7d8",
      "fq_path": "/testfolder",
      "is_dir": true,
      "is_starred": false,
      "color": "",
      "bytes": 0,
      "user_last_modified": "2016-08-29T04:11:04Z",
      "thumbnail_url_tmpl": "",
      "large_thumbnail_url_tmpl": "",
      "permissions": 31,
      "status": 2
    }
  },
  {
    "model": "block.FileSystem",
    "pk": "11",
    "fields": {
      "file_name": "testfolder1",
      "container": "test_account_1_container",
      "type": 2,
      "kind": "folder",
      "extension": "",
      "icon": "folder_1",
      "fq_path_reference": "61dca57e435b9ed1d148fefbf60cb1fd",
      "fq_path": "/testfolder1",
      "is_dir": true,
      "is_starred": false,
      "color": "",
      "bytes": 0,
      "user_last_modified": "2016-08-29T04:11:04Z",
      "thumbnail_url_tmpl": "",
      "large_thumbnail_url_tmpl": "",
      "permissions": 31,
      "status": 2
    }
  },
  {
    "model": "block.FileSystem",
    "pk": "12",
    "fields": {
      "file_name": "testfolder1.1",
      "parent": "11",
      "container": "test_account_1_container",
      "type": 2,
      "kind": "folder",
      "extension": "",
      "icon": "folder_1",
      "fq_path_reference": "95cbd85a182a3e17b01432296b4183ba",
      "fq_path": "/testfolder1/testfolder1.1",
      "is_dir": true,
      "is_starred": false,
      "color": "",
      "bytes": 0,
      "user_last_modified": "2016-08-29T04:11:04Z",
      "thumbnail_url_tmpl": "",
      "large_thumbnail_url_tmpl": "",
      "permissions": 31,
      "status": 2
    }
  },
  {
    "model": "block.FileSystem",
    "pk": "13",
    "fields": {
      "file_name": "testfolder1.2",
      "parent": "11",
      "container": "test_account_1_container",
      "type": 2,
      "kind": "folder",
      "extension": "",
      "icon": "folder_1",
      "fq_path_reference": "485a5b4fc35889401564d65d858eaef1",
      "fq_path": "/testfolder1/testfolder1.2",
      "is_dir": true,
      "is_starred": false,
      "color": "",
      "bytes": 0,
      "user_last_modified": "2016-08-29T04:11:04Z",
      "thumbnail_url_tmpl": "",
      "large_thumbnail_url_tmpl": "",
      "permissions": 31,
      "status": 2
    }
  },
  {
    "model": "block.FileSystem",
    "pk": "2",
    "fields": {
      "file_name": "testfile.txt",
      "container": "test_account_1_container",
      "type": 1,
      "kind": "file",
      "extension": "txt",
      "icon": "file_1",
      "fq_path_reference": "d6670c850cd9357b2ee617e4c21cc5eb",
      "fq_path": "/testfile.txt",
      "is_dir": false,
      "is_starred": false,
      "color": "",
      "bytes": 1000,
      "user_last_modified": "2016-08-29T04:11:04Z",
      "thumbnail_url_tmpl": "",
      "large_thumbnail_url_tmpl": "",
      "permissions": 27,
      "status": 2
    }
  },
  {
    "model": "block.FileSystem",
    "pk": "3",
    "fields": {
      "file_name": "testfileuploading.txt",
      "container": "test_account_1_container",
      "type": 1,
      "kind": "file",
      "extension": "txt",
      "icon": "file_1",
      "fq_path_reference": "6ab3142afbc43446594e097711868f77",
      "fq_path": "/testfileuploading.txt",
      "is_dir": false,
      "is_starred": false,
      "color": "",
      "bytes": 1000,
      "user_last_modified": "2016-08-29T04:11:04Z",
      "thumbnail_url_tmpl": "",
      "large_thumbnail_url_tmpl": "",
      "permissions": 27,
      "status": 1
    }
  }
]